train/0/1.jpg;0
train/0/2.jpg;0
train/0/3.jpg;0
train/0/4.jpg;0
train/0/5.jpg;0
train/0/6.jpg;0
train/0/7.jpg;0
train/0/8.jpg;0
train/0/9.jpg;0
train/0/10.jpg;0
train/0/11.jpg;0
train/0/12.jpg;0
train/0/13.jpg;0
train/0/14.jpg;0
train/0/15.jpg;0
train/0/16.jpg;0
train/25/1.jpg;25
train/25/2.jpg;25
train/25/3.jpg;25
train/25/4.jpg;25
train/25/5.jpg;25
train/25/6.jpg;25
train/25/7.jpg;25
train/25/8.jpg;25
train/25/9.jpg;25
train/25/10.jpg;25
train/25/11.jpg;25
train/25/12.jpg;25
train/25/13.jpg;25
train/25/14.jpg;25
train/25/15.jpg;25
train/25/16.jpg;25
train/50/1.jpg;50
train/50/2.jpg;50
train/50/3.jpg;50
train/50/4.jpg;50
train/50/5.jpg;50
train/50/6.jpg;50
train/50/7.jpg;50
train/50/8.jpg;50
train/50/9.jpg;50
train/50/10.jpg;50
train/50/11.jpg;50
train/50/12.jpg;50
train/50/13.jpg;50
train/50/14.jpg;50
train/50/15.jpg;50
train/50/16.jpg;50
train/75/1.jpg;75
train/75/2.jpg;75
train/75/3.jpg;75
train/75/4.jpg;75
train/75/5.jpg;75
train/75/6.jpg;75
train/75/7.jpg;75
train/75/8.jpg;75
train/75/9.jpg;75
train/75/10.jpg;75
train/75/11.jpg;75
train/75/12.jpg;75
train/75/13.jpg;75
train/75/14.jpg;75
train/75/15.jpg;75
train/75/16.jpg;75
train/100/1.jpg;100
train/100/2.jpg;100
train/100/3.jpg;100
train/100/4.jpg;100
train/100/5.jpg;100
train/100/6.jpg;100
train/100/7.jpg;100
train/100/8.jpg;100
train/100/9.jpg;100
train/100/10.jpg;100
train/100/11.jpg;100
train/100/12.jpg;100
train/100/13.jpg;100
train/100/14.jpg;100
train/100/15.jpg;100
train/100/16.jpg;100